{
    "compilerOptions": {
        "experimentalDecorators": true,
        "baseUrl": ".",
        "paths": {
            "c/gauge": [
                "gauge/gauge.js"
            ],
            "c/libsD3": [
                "libsD3/libsD3.js"
            ]
        }
    },
    "include": [
        "**/*",
        "../../../../.sfdx/typings/lwc/**/*.d.ts"
    ],
    "typeAcquisition": {
        "include": [
            "jest"
        ]
    },
    "paths": {
        "c/*": [
            "*"
        ]
    }
}
