{
    "records": [
        {
            "attributes": {
                "type": "Account_Open_Method_Risk__c",
                "referenceId": "Account_Open_Method_Risk__cRef1"
            },
            "Name": "Online",
            "Score__c": 5,
            "Risk__c": "High"
        },
        {
            "attributes": {
                "type": "Account_Open_Method_Risk__c",
                "referenceId": "Account_Open_Method_Risk__cRef2"
            },
            "Name": "In Person",
            "Score__c": 1,
            "Risk__c": "Low"
        }
    ]
}