{
    "records": [
        {
            "attributes": {
                "type": "Industry_Risk__c",
                "referenceId": "Industry_Risk__cRef201"
            },
            "Name": "Teleproduction and Other Postproduction Services",
            "NAICSCode__c": 512191,
            "Risk__c": "Low",
            "Score__c": 1
        },
        {
            "attributes": {
                "type": "Industry_Risk__c",
                "referenceId": "Industry_Risk__cRef202"
            },
            "Name": "Television Broadcasting",
            "NAICSCode__c": 515120,
            "Risk__c": "Low",
            "Score__c": 1
        },
        {
            "attributes": {
                "type": "Industry_Risk__c",
                "referenceId": "Industry_Risk__cRef203"
            },
            "Name": "Wired Telecommunications Carriers",
            "NAICSCode__c": 517110,
            "Risk__c": "Low",
            "Score__c": 1
        },
        {
            "attributes": {
                "type": "Industry_Risk__c",
                "referenceId": "Industry_Risk__cRef204"
            },
            "Name": "Wireless Telecommunications Carriers (except Satellite)",
            "NAICSCode__c": 517210,
            "Risk__c": "Low",
            "Score__c": 1
        },
        {
            "attributes": {
                "type": "Industry_Risk__c",
                "referenceId": "Industry_Risk__cRef205"
            },
            "Name": "Corporate, Subsidiary, and Regional Managing Offices",
            "NAICSCode__c": 551114,
            "Risk__c": "Low",
            "Score__c": 1
        },
        {
            "attributes": {
                "type": "Industry_Risk__c",
                "referenceId": "Industry_Risk__cRef206"
            },
            "Name": "Offices of Bank Holding Companies",
            "NAICSCode__c": 551111,
            "Risk__c": "Medium",
            "Score__c": 3
        },
        {
            "attributes": {
                "type": "Industry_Risk__c",
                "referenceId": "Industry_Risk__cRef207"
            },
            "Name": "Phosphate Rock Mining",
            "NAICSCode__c": 212392,
            "Risk__c": "Low",
            "Score__c": 1
        },
        {
            "attributes": {
                "type": "Industry_Risk__c",
                "referenceId": "Industry_Risk__cRef208"
            },
            "Name": "Potash, Soda, and Borate Mineral Mining",
            "NAICSCode__c": 212391,
            "Risk__c": "Low",
            "Score__c": 1
        },
        {
            "attributes": {
                "type": "Industry_Risk__c",
                "referenceId": "Industry_Risk__cRef209"
            },
            "Name": "Silver Ore Mining",
            "NAICSCode__c": 212222,
            "Risk__c": "Low",
            "Score__c": 1
        },
        {
            "attributes": {
                "type": "Industry_Risk__c",
                "referenceId": "Industry_Risk__cRef210"
            },
            "Name": "Support Activities for Coal Mining",
            "NAICSCode__c": 213113,
            "Risk__c": "Low",
            "Score__c": 1
        },
        {
            "attributes": {
                "type": "Industry_Risk__c",
                "referenceId": "Industry_Risk__cRef211"
            },
            "Name": "Support Activities for Metal Mining",
            "NAICSCode__c": 213114,
            "Risk__c": "Low",
            "Score__c": 1
        },
        {
            "attributes": {
                "type": "Industry_Risk__c",
                "referenceId": "Industry_Risk__cRef212"
            },
            "Name": "Support Activities for Nonmetallic Minerals (except Fuels) Mining",
            "NAICSCode__c": 213115,
            "Risk__c": "Low",
            "Score__c": 1
        },
        {
            "attributes": {
                "type": "Industry_Risk__c",
                "referenceId": "Industry_Risk__cRef213"
            },
            "Name": "Support Activities for Oil and Gas Operations",
            "NAICSCode__c": 213112,
            "Risk__c": "Low",
            "Score__c": 1
        },
        {
            "attributes": {
                "type": "Industry_Risk__c",
                "referenceId": "Industry_Risk__cRef214"
            },
            "Name": "Uranium-Radium-Vanadium Ore Mining",
            "NAICSCode__c": 212291,
            "Risk__c": "Low",
            "Score__c": 1
        },
        {
            "attributes": {
                "type": "Industry_Risk__c",
                "referenceId": "Industry_Risk__cRef215"
            },
            "Name": "All Other Automotive Repair and Maintenance",
            "NAICSCode__c": 811198,
            "Risk__c": "High",
            "Score__c": 5
        },
        {
            "attributes": {
                "type": "Industry_Risk__c",
                "referenceId": "Industry_Risk__cRef216"
            },
            "Name": "All Other Personal Services",
            "NAICSCode__c": 812990,
            "Risk__c": "Medium",
            "Score__c": 3
        },
        {
            "attributes": {
                "type": "Industry_Risk__c",
                "referenceId": "Industry_Risk__cRef217"
            },
            "Name": "Appliance Repair and Maintenance",
            "NAICSCode__c": 811412,
            "Risk__c": "Medium",
            "Score__c": 3
        },
        {
            "attributes": {
                "type": "Industry_Risk__c",
                "referenceId": "Industry_Risk__cRef218"
            },
            "Name": "Automotive Body, Paint, and Interior Repair and Maintenance",
            "NAICSCode__c": 811121,
            "Risk__c": "High",
            "Score__c": 5
        },
        {
            "attributes": {
                "type": "Industry_Risk__c",
                "referenceId": "Industry_Risk__cRef219"
            },
            "Name": "Automotive Exhaust System Repair",
            "NAICSCode__c": 811112,
            "Risk__c": "High",
            "Score__c": 5
        },
        {
            "attributes": {
                "type": "Industry_Risk__c",
                "referenceId": "Industry_Risk__cRef220"
            },
            "Name": "Automotive Glass Replacement Shops",
            "NAICSCode__c": 811122,
            "Risk__c": "High",
            "Score__c": 5
        },
        {
            "attributes": {
                "type": "Industry_Risk__c",
                "referenceId": "Industry_Risk__cRef221"
            },
            "Name": "Automotive Oil Change and Lubrication Shops",
            "NAICSCode__c": 811191,
            "Risk__c": "High",
            "Score__c": 5
        },
        {
            "attributes": {
                "type": "Industry_Risk__c",
                "referenceId": "Industry_Risk__cRef222"
            },
            "Name": "Automotive Transmission Repair",
            "NAICSCode__c": 811113,
            "Risk__c": "High",
            "Score__c": 5
        },
        {
            "attributes": {
                "type": "Industry_Risk__c",
                "referenceId": "Industry_Risk__cRef223"
            },
            "Name": "Barber Shops",
            "NAICSCode__c": 812111,
            "Risk__c": "Medium",
            "Score__c": 3
        },
        {
            "attributes": {
                "type": "Industry_Risk__c",
                "referenceId": "Industry_Risk__cRef224"
            },
            "Name": "Beauty Salons",
            "NAICSCode__c": 812112,
            "Risk__c": "Medium",
            "Score__c": 3
        },
        {
            "attributes": {
                "type": "Industry_Risk__c",
                "referenceId": "Industry_Risk__cRef225"
            },
            "Name": "Business Associations",
            "NAICSCode__c": 813910,
            "Risk__c": "Medium",
            "Score__c": 3
        },
        {
            "attributes": {
                "type": "Industry_Risk__c",
                "referenceId": "Industry_Risk__cRef226"
            },
            "Name": "Car Washes",
            "NAICSCode__c": 811192,
            "Risk__c": "High",
            "Score__c": 5
        },
        {
            "attributes": {
                "type": "Industry_Risk__c",
                "referenceId": "Industry_Risk__cRef227"
            },
            "Name": "Cemeteries and Crematories",
            "NAICSCode__c": 812220,
            "Risk__c": "Medium",
            "Score__c": 3
        },
        {
            "attributes": {
                "type": "Industry_Risk__c",
                "referenceId": "Industry_Risk__cRef228"
            },
            "Name": "Civic and Social Organizations",
            "NAICSCode__c": 813410,
            "Risk__c": "High",
            "Score__c": 5
        },
        {
            "attributes": {
                "type": "Industry_Risk__c",
                "referenceId": "Industry_Risk__cRef229"
            },
            "Name": "Coin-Operated Laundries and Drycleaners",
            "NAICSCode__c": 812310,
            "Risk__c": "High",
            "Score__c": 5
        },
        {
            "attributes": {
                "type": "Industry_Risk__c",
                "referenceId": "Industry_Risk__cRef230"
            },
            "Name": "Communication Equipment Repair and Maintenance",
            "NAICSCode__c": 811213,
            "Risk__c": "Medium",
            "Score__c": 3
        },
        {
            "attributes": {
                "type": "Industry_Risk__c",
                "referenceId": "Industry_Risk__cRef231"
            },
            "Name": "Computer and Office Machine Repair and Maintenance",
            "NAICSCode__c": 811212,
            "Risk__c": "Medium",
            "Score__c": 3
        },
        {
            "attributes": {
                "type": "Industry_Risk__c",
                "referenceId": "Industry_Risk__cRef232"
            },
            "Name": "Consumer Electronics Repair and Maintenance",
            "NAICSCode__c": 811211,
            "Risk__c": "Medium",
            "Score__c": 3
        },
        {
            "attributes": {
                "type": "Industry_Risk__c",
                "referenceId": "Industry_Risk__cRef233"
            },
            "Name": "Diet and Weight Reducing Centers",
            "NAICSCode__c": 812191,
            "Risk__c": "Medium",
            "Score__c": 3
        },
        {
            "attributes": {
                "type": "Industry_Risk__c",
                "referenceId": "Industry_Risk__cRef234"
            },
            "Name": "Drycleaning and Laundry Services (except Coin-Operated)",
            "NAICSCode__c": 812320,
            "Risk__c": "High",
            "Score__c": 5
        },
        {
            "attributes": {
                "type": "Industry_Risk__c",
                "referenceId": "Industry_Risk__cRef235"
            },
            "Name": "Environment, Conservation and Wildlife Organizations",
            "NAICSCode__c": 813312,
            "Risk__c": "High",
            "Score__c": 5
        },
        {
            "attributes": {
                "type": "Industry_Risk__c",
                "referenceId": "Industry_Risk__cRef236"
            },
            "Name": "Footwear and Leather Goods Repair",
            "NAICSCode__c": 811430,
            "Risk__c": "Medium",
            "Score__c": 3
        },
        {
            "attributes": {
                "type": "Industry_Risk__c",
                "referenceId": "Industry_Risk__cRef237"
            },
            "Name": "Funeral Homes and Funeral Services",
            "NAICSCode__c": 812210,
            "Risk__c": "Medium",
            "Score__c": 3
        },
        {
            "attributes": {
                "type": "Industry_Risk__c",
                "referenceId": "Industry_Risk__cRef238"
            },
            "Name": "General Automotive Repair",
            "NAICSCode__c": 811111,
            "Risk__c": "High",
            "Score__c": 5
        },
        {
            "attributes": {
                "type": "Industry_Risk__c",
                "referenceId": "Industry_Risk__cRef239"
            },
            "Name": "Grantmaking Foundations",
            "NAICSCode__c": 813211,
            "Risk__c": "High",
            "Score__c": 5
        },
        {
            "attributes": {
                "type": "Industry_Risk__c",
                "referenceId": "Industry_Risk__cRef240"
            },
            "Name": "Home and Garden Equipment Repair and Maintenance",
            "NAICSCode__c": 811411,
            "Risk__c": "Medium",
            "Score__c": 3
        },
        {
            "attributes": {
                "type": "Industry_Risk__c",
                "referenceId": "Industry_Risk__cRef241"
            },
            "Name": "Human Rights Organizations",
            "NAICSCode__c": 813311,
            "Risk__c": "High",
            "Score__c": 5
        },
        {
            "attributes": {
                "type": "Industry_Risk__c",
                "referenceId": "Industry_Risk__cRef242"
            },
            "Name": "Industrial Launderers",
            "NAICSCode__c": 812332,
            "Risk__c": "Medium",
            "Score__c": 3
        },
        {
            "attributes": {
                "type": "Industry_Risk__c",
                "referenceId": "Industry_Risk__cRef243"
            },
            "Name": "Adhesive Manufacturing",
            "NAICSCode__c": 325520,
            "Risk__c": "Low",
            "Score__c": 1
        },
        {
            "attributes": {
                "type": "Industry_Risk__c",
                "referenceId": "Industry_Risk__cRef244"
            },
            "Name": "Air and Gas Compressor Manufacturing",
            "NAICSCode__c": 333912,
            "Risk__c": "Low",
            "Score__c": 1
        },
        {
            "attributes": {
                "type": "Industry_Risk__c",
                "referenceId": "Industry_Risk__cRef245"
            },
            "Name": "Aircraft Engine and Engine Parts Manufacturing",
            "NAICSCode__c": 336412,
            "Risk__c": "Low",
            "Score__c": 1
        },
        {
            "attributes": {
                "type": "Industry_Risk__c",
                "referenceId": "Industry_Risk__cRef246"
            },
            "Name": "Aircraft Manufacturing",
            "NAICSCode__c": 336411,
            "Risk__c": "Low",
            "Score__c": 1
        },
        {
            "attributes": {
                "type": "Industry_Risk__c",
                "referenceId": "Industry_Risk__cRef247"
            },
            "Name": "All Other Basic Organic Chemical Manufacturing",
            "NAICSCode__c": 325199,
            "Risk__c": "Low",
            "Score__c": 1
        },
        {
            "attributes": {
                "type": "Industry_Risk__c",
                "referenceId": "Industry_Risk__cRef248"
            },
            "Name": "All Other Converted Paper Product Manufacturing",
            "NAICSCode__c": 322299,
            "Risk__c": "Low",
            "Score__c": 1
        },
        {
            "attributes": {
                "type": "Industry_Risk__c",
                "referenceId": "Industry_Risk__cRef249"
            },
            "Name": "All Other Leather Good and Allied Product Manufacturing",
            "NAICSCode__c": 316998,
            "Risk__c": "Medium",
            "Score__c": 3
        },
        {
            "attributes": {
                "type": "Industry_Risk__c",
                "referenceId": "Industry_Risk__cRef250"
            },
            "Name": "All Other Miscellaneous Chemical Product and Preparation Manufacturing",
            "NAICSCode__c": 325998,
            "Risk__c": "Medium",
            "Score__c": 3
        },
        {
            "attributes": {
                "type": "Industry_Risk__c",
                "referenceId": "Industry_Risk__cRef251"
            },
            "Name": "All Other Miscellaneous Electrical Equipment and Component Manufacturing",
            "NAICSCode__c": 335999,
            "Risk__c": "Low",
            "Score__c": 1
        },
        {
            "attributes": {
                "type": "Industry_Risk__c",
                "referenceId": "Industry_Risk__cRef252"
            },
            "Name": "All Other Miscellaneous Fabricated Metal Product Manufacturing",
            "NAICSCode__c": 332999,
            "Risk__c": "Low",
            "Score__c": 1
        },
        {
            "attributes": {
                "type": "Industry_Risk__c",
                "referenceId": "Industry_Risk__cRef253"
            },
            "Name": "All Other Miscellaneous Food Manufacturing",
            "NAICSCode__c": 311999,
            "Risk__c": "Low",
            "Score__c": 1
        },
        {
            "attributes": {
                "type": "Industry_Risk__c",
                "referenceId": "Industry_Risk__cRef254"
            },
            "Name": "All Other Miscellaneous General Purpose Machinery Manufacturing",
            "NAICSCode__c": 333999,
            "Risk__c": "Low",
            "Score__c": 1
        },
        {
            "attributes": {
                "type": "Industry_Risk__c",
                "referenceId": "Industry_Risk__cRef255"
            },
            "Name": "All Other Miscellaneous Manufacturing",
            "NAICSCode__c": 339999,
            "Risk__c": "Low",
            "Score__c": 1
        },
        {
            "attributes": {
                "type": "Industry_Risk__c",
                "referenceId": "Industry_Risk__cRef256"
            },
            "Name": "Offices of Other Holding Companies",
            "NAICSCode__c": 551112,
            "Risk__c": "Medium",
            "Score__c": 3
        },
        {
            "attributes": {
                "type": "Industry_Risk__c",
                "referenceId": "Industry_Risk__cRef257"
            },
            "Name": "Abrasive Product Manufacturing",
            "NAICSCode__c": 327910,
            "Risk__c": "Low",
            "Score__c": 1
        },
        {
            "attributes": {
                "type": "Industry_Risk__c",
                "referenceId": "Industry_Risk__cRef258"
            },
            "Name": "All Other Miscellaneous Nonmetallic Mineral Product Manufacturing",
            "NAICSCode__c": 327999,
            "Risk__c": "Low",
            "Score__c": 1
        },
        {
            "attributes": {
                "type": "Industry_Risk__c",
                "referenceId": "Industry_Risk__cRef259"
            },
            "Name": "All Other Miscellaneous Textile Product Mills",
            "NAICSCode__c": 314999,
            "Risk__c": "Low",
            "Score__c": 1
        },
        {
            "attributes": {
                "type": "Industry_Risk__c",
                "referenceId": "Industry_Risk__cRef260"
            },
            "Name": "All Other Miscellaneous Wood Product Manufacturing",
            "NAICSCode__c": 321999,
            "Risk__c": "Medium",
            "Score__c": 3
        },
        {
            "attributes": {
                "type": "Industry_Risk__c",
                "referenceId": "Industry_Risk__cRef261"
            },
            "Name": "All Other Petroleum and Coal Products Manufacturing",
            "NAICSCode__c": 324199,
            "Risk__c": "Low",
            "Score__c": 1
        },
        {
            "attributes": {
                "type": "Industry_Risk__c",
                "referenceId": "Industry_Risk__cRef262"
            },
            "Name": "All Other Plastics Product Manufacturing",
            "NAICSCode__c": 326199,
            "Risk__c": "Low",
            "Score__c": 1
        },
        {
            "attributes": {
                "type": "Industry_Risk__c",
                "referenceId": "Industry_Risk__cRef263"
            },
            "Name": "All Other Rubber Product Manufacturing",
            "NAICSCode__c": 326299,
            "Risk__c": "Low",
            "Score__c": 1
        },
        {
            "attributes": {
                "type": "Industry_Risk__c",
                "referenceId": "Industry_Risk__cRef264"
            },
            "Name": "All Other Transportation Equipment Manufacturing",
            "NAICSCode__c": 336999,
            "Risk__c": "Medium",
            "Score__c": 3
        },
        {
            "attributes": {
                "type": "Industry_Risk__c",
                "referenceId": "Industry_Risk__cRef265"
            },
            "Name": "Alumina Refining and Primary Aluminum Production",
            "NAICSCode__c": 331313,
            "Risk__c": "Low",
            "Score__c": 1
        },
        {
            "attributes": {
                "type": "Industry_Risk__c",
                "referenceId": "Industry_Risk__cRef266"
            },
            "Name": "Aluminum Foundries (except Die-Casting)",
            "NAICSCode__c": 331524,
            "Risk__c": "Low",
            "Score__c": 1
        },
        {
            "attributes": {
                "type": "Industry_Risk__c",
                "referenceId": "Industry_Risk__cRef267"
            },
            "Name": "Aluminum Sheet, Plate, and Foil Manufacturing",
            "NAICSCode__c": 331315,
            "Risk__c": "Low",
            "Score__c": 1
        },
        {
            "attributes": {
                "type": "Industry_Risk__c",
                "referenceId": "Industry_Risk__cRef268"
            },
            "Name": "Ammunition (except Small Arms) Manufacturing",
            "NAICSCode__c": 332993,
            "Risk__c": "Medium",
            "Score__c": 3
        },
        {
            "attributes": {
                "type": "Industry_Risk__c",
                "referenceId": "Industry_Risk__cRef269"
            },
            "Name": "Analytical Laboratory Instrument Manufacturing",
            "NAICSCode__c": 334516,
            "Risk__c": "Low",
            "Score__c": 1
        },
        {
            "attributes": {
                "type": "Industry_Risk__c",
                "referenceId": "Industry_Risk__cRef270"
            },
            "Name": "Animal (except Poultry) Slaughtering",
            "NAICSCode__c": 311611,
            "Risk__c": "Low",
            "Score__c": 1
        },
        {
            "attributes": {
                "type": "Industry_Risk__c",
                "referenceId": "Industry_Risk__cRef271"
            },
            "Name": "Apparel Accessories and Other Apparel Manufacturing",
            "NAICSCode__c": 315990,
            "Risk__c": "Medium",
            "Score__c": 3
        },
        {
            "attributes": {
                "type": "Industry_Risk__c",
                "referenceId": "Industry_Risk__cRef272"
            },
            "Name": "Artificial and Synthetic Fibers and Filaments Manufacturing",
            "NAICSCode__c": 325220,
            "Risk__c": "Low",
            "Score__c": 1
        },
        {
            "attributes": {
                "type": "Industry_Risk__c",
                "referenceId": "Industry_Risk__cRef273"
            },
            "Name": "Asphalt Paving Mixture and Block Manufacturing",
            "NAICSCode__c": 324121,
            "Risk__c": "Low",
            "Score__c": 1
        },
        {
            "attributes": {
                "type": "Industry_Risk__c",
                "referenceId": "Industry_Risk__cRef274"
            },
            "Name": "Asphalt Shingle and Coating Materials Manufacturing",
            "NAICSCode__c": 324122,
            "Risk__c": "Low",
            "Score__c": 1
        },
        {
            "attributes": {
                "type": "Industry_Risk__c",
                "referenceId": "Industry_Risk__cRef275"
            },
            "Name": "Audio and Video Equipment Manufacturing",
            "NAICSCode__c": 334310,
            "Risk__c": "Low",
            "Score__c": 1
        },
        {
            "attributes": {
                "type": "Industry_Risk__c",
                "referenceId": "Industry_Risk__cRef276"
            },
            "Name": "Automobile Manufacturing",
            "NAICSCode__c": 336111,
            "Risk__c": "Medium",
            "Score__c": 3
        },
        {
            "attributes": {
                "type": "Industry_Risk__c",
                "referenceId": "Industry_Risk__cRef277"
            },
            "Name": "Ball and Roller Bearing Manufacturing",
            "NAICSCode__c": 332991,
            "Risk__c": "Low",
            "Score__c": 1
        },
        {
            "attributes": {
                "type": "Industry_Risk__c",
                "referenceId": "Industry_Risk__cRef278"
            },
            "Name": "Bare Printed Circuit Board Manufacturing",
            "NAICSCode__c": 334412,
            "Risk__c": "Low",
            "Score__c": 1
        },
        {
            "attributes": {
                "type": "Industry_Risk__c",
                "referenceId": "Industry_Risk__cRef279"
            },
            "Name": "Beet Sugar Manufacturing",
            "NAICSCode__c": 311313,
            "Risk__c": "Low",
            "Score__c": 1
        },
        {
            "attributes": {
                "type": "Industry_Risk__c",
                "referenceId": "Industry_Risk__cRef280"
            },
            "Name": "Biological Product (except Diagnostic) Manufacturing",
            "NAICSCode__c": 325414,
            "Risk__c": "Medium",
            "Score__c": 3
        },
        {
            "attributes": {
                "type": "Industry_Risk__c",
                "referenceId": "Industry_Risk__cRef281"
            },
            "Name": "Blank Magnetic and Optical Recording Media Manufacturing",
            "NAICSCode__c": 334613,
            "Risk__c": "Low",
            "Score__c": 1
        },
        {
            "attributes": {
                "type": "Industry_Risk__c",
                "referenceId": "Industry_Risk__cRef282"
            },
            "Name": "Nail Salons",
            "NAICSCode__c": 812113,
            "Risk__c": "Medium",
            "Score__c": 3
        },
        {
            "attributes": {
                "type": "Industry_Risk__c",
                "referenceId": "Industry_Risk__cRef283"
            },
            "Name": "One-Hour Photofinishing",
            "NAICSCode__c": 812922,
            "Risk__c": "Medium",
            "Score__c": 3
        },
        {
            "attributes": {
                "type": "Industry_Risk__c",
                "referenceId": "Industry_Risk__cRef284"
            },
            "Name": "Other Automotive Mechanical and Electrical Repair and Maintenance",
            "NAICSCode__c": 811118,
            "Risk__c": "High",
            "Score__c": 5
        },
        {
            "attributes": {
                "type": "Industry_Risk__c",
                "referenceId": "Industry_Risk__cRef285"
            },
            "Name": "Other Electronic and Precision Equipment Repair and Maintenance",
            "NAICSCode__c": 811219,
            "Risk__c": "Medium",
            "Score__c": 3
        },
        {
            "attributes": {
                "type": "Industry_Risk__c",
                "referenceId": "Industry_Risk__cRef286"
            },
            "Name": "Other Grantmaking and Giving Services",
            "NAICSCode__c": 813219,
            "Risk__c": "High",
            "Score__c": 5
        },
        {
            "attributes": {
                "type": "Industry_Risk__c",
                "referenceId": "Industry_Risk__cRef287"
            },
            "Name": "Other Personal and Household Goods Repair and Maintenance",
            "NAICSCode__c": 811490,
            "Risk__c": "Medium",
            "Score__c": 3
        },
        {
            "attributes": {
                "type": "Industry_Risk__c",
                "referenceId": "Industry_Risk__cRef288"
            },
            "Name": "Other Personal Care Services",
            "NAICSCode__c": 812199,
            "Risk__c": "Medium",
            "Score__c": 3
        },
        {
            "attributes": {
                "type": "Industry_Risk__c",
                "referenceId": "Industry_Risk__cRef289"
            },
            "Name": "Other Social Advocacy Organizations",
            "NAICSCode__c": 813319,
            "Risk__c": "High",
            "Score__c": 5
        },
        {
            "attributes": {
                "type": "Industry_Risk__c",
                "referenceId": "Industry_Risk__cRef290"
            },
            "Name": "Parking Lots and Garages",
            "NAICSCode__c": 812930,
            "Risk__c": "High",
            "Score__c": 5
        },
        {
            "attributes": {
                "type": "Industry_Risk__c",
                "referenceId": "Industry_Risk__cRef291"
            },
            "Name": "Pet Care (except Veterinary) Services",
            "NAICSCode__c": 812910,
            "Risk__c": "Medium",
            "Score__c": 3
        },
        {
            "attributes": {
                "type": "Industry_Risk__c",
                "referenceId": "Industry_Risk__cRef292"
            },
            "Name": "Photofinishing Laboratories (except One-Hour)",
            "NAICSCode__c": 812921,
            "Risk__c": "Medium",
            "Score__c": 3
        },
        {
            "attributes": {
                "type": "Industry_Risk__c",
                "referenceId": "Industry_Risk__cRef293"
            },
            "Name": "Political Organizations",
            "NAICSCode__c": 813940,
            "Risk__c": "High",
            "Score__c": 5
        },
        {
            "attributes": {
                "type": "Industry_Risk__c",
                "referenceId": "Industry_Risk__cRef294"
            },
            "Name": "Private Households",
            "NAICSCode__c": 814110,
            "Risk__c": "Medium",
            "Score__c": 3
        },
        {
            "attributes": {
                "type": "Industry_Risk__c",
                "referenceId": "Industry_Risk__cRef295"
            },
            "Name": "Labor Unions and Similar Labor Organizations",
            "NAICSCode__c": 813930,
            "Risk__c": "Medium",
            "Score__c": 3
        },
        {
            "attributes": {
                "type": "Industry_Risk__c",
                "referenceId": "Industry_Risk__cRef296"
            },
            "Name": "Linen Supply",
            "NAICSCode__c": 812331,
            "Risk__c": "Medium",
            "Score__c": 3
        },
        {
            "attributes": {
                "type": "Industry_Risk__c",
                "referenceId": "Industry_Risk__cRef297"
            },
            "Name": "Professional Organizations",
            "NAICSCode__c": 813920,
            "Risk__c": "Medium",
            "Score__c": 3
        },
        {
            "attributes": {
                "type": "Industry_Risk__c",
                "referenceId": "Industry_Risk__cRef298"
            },
            "Name": "Religious Organizations",
            "NAICSCode__c": 813110,
            "Risk__c": "High",
            "Score__c": 5
        },
        {
            "attributes": {
                "type": "Industry_Risk__c",
                "referenceId": "Industry_Risk__cRef299"
            },
            "Name": "Reupholstery and Furniture Repair",
            "NAICSCode__c": 811420,
            "Risk__c": "Medium",
            "Score__c": 3
        },
        {
            "attributes": {
                "type": "Industry_Risk__c",
                "referenceId": "Industry_Risk__cRef300"
            },
            "Name": "Voluntary Health Organizations",
            "NAICSCode__c": 813212,
            "Risk__c": "High",
            "Score__c": 5
        },
        {
            "attributes": {
                "type": "Industry_Risk__c",
                "referenceId": "Industry_Risk__cRef301"
            },
            "Name": "Administrative Management and General Management Consulting Services",
            "NAICSCode__c": 541611,
            "Risk__c": "Low",
            "Score__c": 1
        },
        {
            "attributes": {
                "type": "Industry_Risk__c",
                "referenceId": "Industry_Risk__cRef302"
            },
            "Name": "Advertising Agencies",
            "NAICSCode__c": 541810,
            "Risk__c": "Medium",
            "Score__c": 3
        },
        {
            "attributes": {
                "type": "Industry_Risk__c",
                "referenceId": "Industry_Risk__cRef303"
            },
            "Name": "Advertising Material Distribution Services",
            "NAICSCode__c": 541870,
            "Risk__c": "Medium",
            "Score__c": 3
        },
        {
            "attributes": {
                "type": "Industry_Risk__c",
                "referenceId": "Industry_Risk__cRef304"
            },
            "Name": "All Other Legal Services",
            "NAICSCode__c": 541199,
            "Risk__c": "High",
            "Score__c": 5
        },
        {
            "attributes": {
                "type": "Industry_Risk__c",
                "referenceId": "Industry_Risk__cRef305"
            },
            "Name": "All Other Professional, Scientific, and Technical Services",
            "NAICSCode__c": 541990,
            "Risk__c": "Medium",
            "Score__c": 3
        },
        {
            "attributes": {
                "type": "Industry_Risk__c",
                "referenceId": "Industry_Risk__cRef306"
            },
            "Name": "Architectural Services",
            "NAICSCode__c": 541310,
            "Risk__c": "Low",
            "Score__c": 1
        },
        {
            "attributes": {
                "type": "Industry_Risk__c",
                "referenceId": "Industry_Risk__cRef307"
            },
            "Name": "Building Inspection Services",
            "NAICSCode__c": 541350,
            "Risk__c": "Low",
            "Score__c": 1
        },
        {
            "attributes": {
                "type": "Industry_Risk__c",
                "referenceId": "Industry_Risk__cRef308"
            },
            "Name": "Commercial Photography",
            "NAICSCode__c": 541922,
            "Risk__c": "Medium",
            "Score__c": 3
        },
        {
            "attributes": {
                "type": "Industry_Risk__c",
                "referenceId": "Industry_Risk__cRef309"
            },
            "Name": "Computer Facilities Management Services",
            "NAICSCode__c": 541513,
            "Risk__c": "Low",
            "Score__c": 1
        },
        {
            "attributes": {
                "type": "Industry_Risk__c",
                "referenceId": "Industry_Risk__cRef310"
            },
            "Name": "Computer Systems Design Services",
            "NAICSCode__c": 541512,
            "Risk__c": "Low",
            "Score__c": 1
        },
        {
            "attributes": {
                "type": "Industry_Risk__c",
                "referenceId": "Industry_Risk__cRef311"
            },
            "Name": "Custom Computer Programming Services",
            "NAICSCode__c": 541511,
            "Risk__c": "Low",
            "Score__c": 1
        },
        {
            "attributes": {
                "type": "Industry_Risk__c",
                "referenceId": "Industry_Risk__cRef312"
            },
            "Name": "Direct Mail Advertising",
            "NAICSCode__c": 541860,
            "Risk__c": "Medium",
            "Score__c": 3
        },
        {
            "attributes": {
                "type": "Industry_Risk__c",
                "referenceId": "Industry_Risk__cRef313"
            },
            "Name": "Drafting Services",
            "NAICSCode__c": 541340,
            "Risk__c": "Low",
            "Score__c": 1
        },
        {
            "attributes": {
                "type": "Industry_Risk__c",
                "referenceId": "Industry_Risk__cRef314"
            },
            "Name": "Engineering Services",
            "NAICSCode__c": 541330,
            "Risk__c": "Low",
            "Score__c": 1
        },
        {
            "attributes": {
                "type": "Industry_Risk__c",
                "referenceId": "Industry_Risk__cRef315"
            },
            "Name": "Environmental Consulting Services",
            "NAICSCode__c": 541620,
            "Risk__c": "Low",
            "Score__c": 1
        },
        {
            "attributes": {
                "type": "Industry_Risk__c",
                "referenceId": "Industry_Risk__cRef316"
            },
            "Name": "Geophysical Surveying and Mapping Services",
            "NAICSCode__c": 541360,
            "Risk__c": "Low",
            "Score__c": 1
        },
        {
            "attributes": {
                "type": "Industry_Risk__c",
                "referenceId": "Industry_Risk__cRef317"
            },
            "Name": "Graphic Design Services",
            "NAICSCode__c": 541430,
            "Risk__c": "Low",
            "Score__c": 1
        },
        {
            "attributes": {
                "type": "Industry_Risk__c",
                "referenceId": "Industry_Risk__cRef318"
            },
            "Name": "Human Resources Consulting Services",
            "NAICSCode__c": 541612,
            "Risk__c": "Low",
            "Score__c": 1
        },
        {
            "attributes": {
                "type": "Industry_Risk__c",
                "referenceId": "Industry_Risk__cRef319"
            },
            "Name": "Industrial Design Services",
            "NAICSCode__c": 541420,
            "Risk__c": "Low",
            "Score__c": 1
        },
        {
            "attributes": {
                "type": "Industry_Risk__c",
                "referenceId": "Industry_Risk__cRef320"
            },
            "Name": "Interior Design Services",
            "NAICSCode__c": 541410,
            "Risk__c": "Low",
            "Score__c": 1
        },
        {
            "attributes": {
                "type": "Industry_Risk__c",
                "referenceId": "Industry_Risk__cRef321"
            },
            "Name": "Landscape Architectural Services",
            "NAICSCode__c": 541320,
            "Risk__c": "Low",
            "Score__c": 1
        },
        {
            "attributes": {
                "type": "Industry_Risk__c",
                "referenceId": "Industry_Risk__cRef322"
            },
            "Name": "Marketing Consulting Services",
            "NAICSCode__c": 541613,
            "Risk__c": "Low",
            "Score__c": 1
        },
        {
            "attributes": {
                "type": "Industry_Risk__c",
                "referenceId": "Industry_Risk__cRef323"
            },
            "Name": "Marketing Research and Public Opinion Polling",
            "NAICSCode__c": 541910,
            "Risk__c": "Medium",
            "Score__c": 3
        },
        {
            "attributes": {
                "type": "Industry_Risk__c",
                "referenceId": "Industry_Risk__cRef324"
            },
            "Name": "Blind and Shade Manufacturing",
            "NAICSCode__c": 337920,
            "Risk__c": "Low",
            "Score__c": 1
        },
        {
            "attributes": {
                "type": "Industry_Risk__c",
                "referenceId": "Industry_Risk__cRef325"
            },
            "Name": "Boat Building",
            "NAICSCode__c": 336612,
            "Risk__c": "Medium",
            "Score__c": 3
        },
        {
            "attributes": {
                "type": "Industry_Risk__c",
                "referenceId": "Industry_Risk__cRef326"
            },
            "Name": "Bolt, Nut, Screw, Rivet, and Washer Manufacturing",
            "NAICSCode__c": 332722,
            "Risk__c": "Low",
            "Score__c": 1
        },
        {
            "attributes": {
                "type": "Industry_Risk__c",
                "referenceId": "Industry_Risk__cRef327"
            },
            "Name": "Books Printing",
            "NAICSCode__c": 323117,
            "Risk__c": "Low",
            "Score__c": 1
        },
        {
            "attributes": {
                "type": "Industry_Risk__c",
                "referenceId": "Industry_Risk__cRef328"
            },
            "Name": "Bottled Water Manufacturing",
            "NAICSCode__c": 312112,
            "Risk__c": "Medium",
            "Score__c": 3
        },
        {
            "attributes": {
                "type": "Industry_Risk__c",
                "referenceId": "Industry_Risk__cRef329"
            },
            "Name": "Breakfast Cereal Manufacturing",
            "NAICSCode__c": 311230,
            "Risk__c": "Low",
            "Score__c": 1
        },
        {
            "attributes": {
                "type": "Industry_Risk__c",
                "referenceId": "Industry_Risk__cRef330"
            },
            "Name": "Breweries",
            "NAICSCode__c": 312120,
            "Risk__c": "Medium",
            "Score__c": 3
        },
        {
            "attributes": {
                "type": "Industry_Risk__c",
                "referenceId": "Industry_Risk__cRef331"
            },
            "Name": "Broadwoven Fabric Mills",
            "NAICSCode__c": 313210,
            "Risk__c": "Low",
            "Score__c": 1
        },
        {
            "attributes": {
                "type": "Industry_Risk__c",
                "referenceId": "Industry_Risk__cRef332"
            },
            "Name": "Broom, Brush, and Mop Manufacturing",
            "NAICSCode__c": 339994,
            "Risk__c": "Low",
            "Score__c": 1
        },
        {
            "attributes": {
                "type": "Industry_Risk__c",
                "referenceId": "Industry_Risk__cRef333"
            },
            "Name": "Burial Casket Manufacturing",
            "NAICSCode__c": 339995,
            "Risk__c": "Low",
            "Score__c": 1
        },
        {
            "attributes": {
                "type": "Industry_Risk__c",
                "referenceId": "Industry_Risk__cRef334"
            },
            "Name": "Cane Sugar Manufacturing",
            "NAICSCode__c": 311314,
            "Risk__c": "Low",
            "Score__c": 1
        },
        {
            "attributes": {
                "type": "Industry_Risk__c",
                "referenceId": "Industry_Risk__cRef335"
            },
            "Name": "Capacitor, Resistor, Coil, Transformer, and Other Inductor Manufacturing",
            "NAICSCode__c": 334416,
            "Risk__c": "Low",
            "Score__c": 1
        },
        {
            "attributes": {
                "type": "Industry_Risk__c",
                "referenceId": "Industry_Risk__cRef336"
            },
            "Name": "Carbon and Graphite Product Manufacturing",
            "NAICSCode__c": 335991,
            "Risk__c": "Low",
            "Score__c": 1
        },
        {
            "attributes": {
                "type": "Industry_Risk__c",
                "referenceId": "Industry_Risk__cRef337"
            },
            "Name": "Carpet and Rug Mills",
            "NAICSCode__c": 314110,
            "Risk__c": "Low",
            "Score__c": 1
        },
        {
            "attributes": {
                "type": "Industry_Risk__c",
                "referenceId": "Industry_Risk__cRef338"
            },
            "Name": "Cement Manufacturing",
            "NAICSCode__c": 327310,
            "Risk__c": "Medium",
            "Score__c": 3
        },
        {
            "attributes": {
                "type": "Industry_Risk__c",
                "referenceId": "Industry_Risk__cRef339"
            },
            "Name": "Cheese Manufacturing",
            "NAICSCode__c": 311513,
            "Risk__c": "Low",
            "Score__c": 1
        },
        {
            "attributes": {
                "type": "Industry_Risk__c",
                "referenceId": "Industry_Risk__cRef340"
            },
            "Name": "Chocolate and Confectionery Manufacturing from Cacao Beans",
            "NAICSCode__c": 311351,
            "Risk__c": "Low",
            "Score__c": 1
        },
        {
            "attributes": {
                "type": "Industry_Risk__c",
                "referenceId": "Industry_Risk__cRef341"
            },
            "Name": "Clay Building Material and Refractories Manufacturing",
            "NAICSCode__c": 327120,
            "Risk__c": "Low",
            "Score__c": 1
        },
        {
            "attributes": {
                "type": "Industry_Risk__c",
                "referenceId": "Industry_Risk__cRef342"
            },
            "Name": "Coffee and Tea Manufacturing",
            "NAICSCode__c": 311920,
            "Risk__c": "Low",
            "Score__c": 1
        },
        {
            "attributes": {
                "type": "Industry_Risk__c",
                "referenceId": "Industry_Risk__cRef343"
            },
            "Name": "Commercial Bakeries",
            "NAICSCode__c": 311812,
            "Risk__c": "Low",
            "Score__c": 1
        },
        {
            "attributes": {
                "type": "Industry_Risk__c",
                "referenceId": "Industry_Risk__cRef344"
            },
            "Name": "Commercial Printing (except Screen and Books)",
            "NAICSCode__c": 323111,
            "Risk__c": "Low",
            "Score__c": 1
        },
        {
            "attributes": {
                "type": "Industry_Risk__c",
                "referenceId": "Industry_Risk__cRef345"
            },
            "Name": "Commercial Screen Printing",
            "NAICSCode__c": 323113,
            "Risk__c": "Low",
            "Score__c": 1
        },
        {
            "attributes": {
                "type": "Industry_Risk__c",
                "referenceId": "Industry_Risk__cRef346"
            },
            "Name": "Computer Storage Device Manufacturing",
            "NAICSCode__c": 334112,
            "Risk__c": "Low",
            "Score__c": 1
        },
        {
            "attributes": {
                "type": "Industry_Risk__c",
                "referenceId": "Industry_Risk__cRef347"
            },
            "Name": "Computer Terminal and Other Computer Peripheral Equipment Manufacturing",
            "NAICSCode__c": 334118,
            "Risk__c": "Low",
            "Score__c": 1
        },
        {
            "attributes": {
                "type": "Industry_Risk__c",
                "referenceId": "Industry_Risk__cRef348"
            },
            "Name": "Concrete Block and Brick Manufacturing",
            "NAICSCode__c": 327331,
            "Risk__c": "Medium",
            "Score__c": 3
        },
        {
            "attributes": {
                "type": "Industry_Risk__c",
                "referenceId": "Industry_Risk__cRef349"
            },
            "Name": "Concrete Pipe Manufacturing",
            "NAICSCode__c": 327332,
            "Risk__c": "Medium",
            "Score__c": 3
        },
        {
            "attributes": {
                "type": "Industry_Risk__c",
                "referenceId": "Industry_Risk__cRef350"
            },
            "Name": "Confectionery Manufacturing from Purchased Chocolate",
            "NAICSCode__c": 311352,
            "Risk__c": "Low",
            "Score__c": 1
        },
        {
            "attributes": {
                "type": "Industry_Risk__c",
                "referenceId": "Industry_Risk__cRef351"
            },
            "Name": "Construction Machinery Manufacturing",
            "NAICSCode__c": 333120,
            "Risk__c": "Low",
            "Score__c": 1
        },
        {
            "attributes": {
                "type": "Industry_Risk__c",
                "referenceId": "Industry_Risk__cRef352"
            },
            "Name": "Conveyor and Conveying Equipment Manufacturing",
            "NAICSCode__c": 333922,
            "Risk__c": "Low",
            "Score__c": 1
        },
        {
            "attributes": {
                "type": "Industry_Risk__c",
                "referenceId": "Industry_Risk__cRef353"
            },
            "Name": "Cookie and Cracker Manufacturing",
            "NAICSCode__c": 311821,
            "Risk__c": "Low",
            "Score__c": 1
        },
        {
            "attributes": {
                "type": "Industry_Risk__c",
                "referenceId": "Industry_Risk__cRef354"
            },
            "Name": "Copper Rolling, Drawing, Extruding, and Alloying",
            "NAICSCode__c": 331420,
            "Risk__c": "Low",
            "Score__c": 1
        },
        {
            "attributes": {
                "type": "Industry_Risk__c",
                "referenceId": "Industry_Risk__cRef355"
            },
            "Name": "Corrugated and Solid Fiber Box Manufacturing",
            "NAICSCode__c": 322211,
            "Risk__c": "Low",
            "Score__c": 1
        },
        {
            "attributes": {
                "type": "Industry_Risk__c",
                "referenceId": "Industry_Risk__cRef356"
            },
            "Name": "Creamery Butter Manufacturing",
            "NAICSCode__c": 311512,
            "Risk__c": "Low",
            "Score__c": 1
        },
        {
            "attributes": {
                "type": "Industry_Risk__c",
                "referenceId": "Industry_Risk__cRef357"
            },
            "Name": "Current-Carrying Wiring Device Manufacturing",
            "NAICSCode__c": 335931,
            "Risk__c": "Low",
            "Score__c": 1
        },
        {
            "attributes": {
                "type": "Industry_Risk__c",
                "referenceId": "Industry_Risk__cRef358"
            },
            "Name": "Curtain and Linen Mills",
            "NAICSCode__c": 314120,
            "Risk__c": "Low",
            "Score__c": 1
        },
        {
            "attributes": {
                "type": "Industry_Risk__c",
                "referenceId": "Industry_Risk__cRef359"
            },
            "Name": "Custom Architectural Woodwork and Millwork Manufacturing",
            "NAICSCode__c": 337212,
            "Risk__c": "Low",
            "Score__c": 1
        },
        {
            "attributes": {
                "type": "Industry_Risk__c",
                "referenceId": "Industry_Risk__cRef360"
            },
            "Name": "Custom Compounding of Purchased Resins",
            "NAICSCode__c": 325991,
            "Risk__c": "Medium",
            "Score__c": 3
        },
        {
            "attributes": {
                "type": "Industry_Risk__c",
                "referenceId": "Industry_Risk__cRef361"
            },
            "Name": "Custom Roll Forming",
            "NAICSCode__c": 332114,
            "Risk__c": "Low",
            "Score__c": 1
        },
        {
            "attributes": {
                "type": "Industry_Risk__c",
                "referenceId": "Industry_Risk__cRef362"
            },
            "Name": "Cut and Sew Apparel Contractors",
            "NAICSCode__c": 315210,
            "Risk__c": "Medium",
            "Score__c": 3
        },
        {
            "attributes": {
                "type": "Industry_Risk__c",
                "referenceId": "Industry_Risk__cRef363"
            },
            "Name": "Cut Stock, Resawing Lumber, and Planing",
            "NAICSCode__c": 321912,
            "Risk__c": "Medium",
            "Score__c": 3
        },
        {
            "attributes": {
                "type": "Industry_Risk__c",
                "referenceId": "Industry_Risk__cRef364"
            },
            "Name": "Cut Stone and Cut Stone Product Manufacturing",
            "NAICSCode__c": 327991,
            "Risk__c": "Low",
            "Score__c": 1
        },
        {
            "attributes": {
                "type": "Industry_Risk__c",
                "referenceId": "Industry_Risk__cRef365"
            },
            "Name": "Offices of Certified Public Accountants",
            "NAICSCode__c": 541211,
            "Risk__c": "High",
            "Score__c": 5
        },
        {
            "attributes": {
                "type": "Industry_Risk__c",
                "referenceId": "Industry_Risk__cRef366"
            },
            "Name": "Offices of Lawyers",
            "NAICSCode__c": 541110,
            "Risk__c": "High",
            "Score__c": 5
        },
        {
            "attributes": {
                "type": "Industry_Risk__c",
                "referenceId": "Industry_Risk__cRef367"
            },
            "Name": "Offices of Notaries",
            "NAICSCode__c": 541120,
            "Risk__c": "High",
            "Score__c": 5
        },
        {
            "attributes": {
                "type": "Industry_Risk__c",
                "referenceId": "Industry_Risk__cRef368"
            },
            "Name": "Other Accounting Services",
            "NAICSCode__c": 541219,
            "Risk__c": "High",
            "Score__c": 5
        },
        {
            "attributes": {
                "type": "Industry_Risk__c",
                "referenceId": "Industry_Risk__cRef369"
            },
            "Name": "Other Computer Related Services",
            "NAICSCode__c": 541519,
            "Risk__c": "Low",
            "Score__c": 1
        },
        {
            "attributes": {
                "type": "Industry_Risk__c",
                "referenceId": "Industry_Risk__cRef370"
            },
            "Name": "Other Management Consulting Services",
            "NAICSCode__c": 541618,
            "Risk__c": "Low",
            "Score__c": 1
        },
        {
            "attributes": {
                "type": "Industry_Risk__c",
                "referenceId": "Industry_Risk__cRef371"
            },
            "Name": "Other Scientific and Technical Consulting Services",
            "NAICSCode__c": 541690,
            "Risk__c": "Low",
            "Score__c": 1
        },
        {
            "attributes": {
                "type": "Industry_Risk__c",
                "referenceId": "Industry_Risk__cRef372"
            },
            "Name": "Other Services Related to Advertising",
            "NAICSCode__c": 541890,
            "Risk__c": "Medium",
            "Score__c": 3
        },
        {
            "attributes": {
                "type": "Industry_Risk__c",
                "referenceId": "Industry_Risk__cRef373"
            },
            "Name": "Other Specialized Design Services",
            "NAICSCode__c": 541490,
            "Risk__c": "Low",
            "Score__c": 1
        },
        {
            "attributes": {
                "type": "Industry_Risk__c",
                "referenceId": "Industry_Risk__cRef374"
            },
            "Name": "Outdoor Advertising",
            "NAICSCode__c": 541850,
            "Risk__c": "Medium",
            "Score__c": 3
        },
        {
            "attributes": {
                "type": "Industry_Risk__c",
                "referenceId": "Industry_Risk__cRef375"
            },
            "Name": "Payroll Services",
            "NAICSCode__c": 541214,
            "Risk__c": "High",
            "Score__c": 5
        },
        {
            "attributes": {
                "type": "Industry_Risk__c",
                "referenceId": "Industry_Risk__cRef376"
            },
            "Name": "Photography Studios, Portrait",
            "NAICSCode__c": 541921,
            "Risk__c": "Medium",
            "Score__c": 3
        },
        {
            "attributes": {
                "type": "Industry_Risk__c",
                "referenceId": "Industry_Risk__cRef377"
            },
            "Name": "Process, Physical Distribution, and Logistics Consulting Services",
            "NAICSCode__c": 541614,
            "Risk__c": "Low",
            "Score__c": 1
        },
        {
            "attributes": {
                "type": "Industry_Risk__c",
                "referenceId": "Industry_Risk__cRef378"
            },
            "Name": "Media Buying Agencies",
            "NAICSCode__c": 541830,
            "Risk__c": "Medium",
            "Score__c": 3
        },
        {
            "attributes": {
                "type": "Industry_Risk__c",
                "referenceId": "Industry_Risk__cRef379"
            },
            "Name": "Media Representatives",
            "NAICSCode__c": 541840,
            "Risk__c": "Medium",
            "Score__c": 3
        },
        {
            "attributes": {
                "type": "Industry_Risk__c",
                "referenceId": "Industry_Risk__cRef380"
            },
            "Name": "Public Relations Agencies",
            "NAICSCode__c": 541820,
            "Risk__c": "Medium",
            "Score__c": 3
        },
        {
            "attributes": {
                "type": "Industry_Risk__c",
                "referenceId": "Industry_Risk__cRef381"
            },
            "Name": "Research and Development In Biotechnology",
            "NAICSCode__c": 541711,
            "Risk__c": "Low",
            "Score__c": 1
        },
        {
            "attributes": {
                "type": "Industry_Risk__c",
                "referenceId": "Industry_Risk__cRef382"
            },
            "Name": "Research and Development In the Social Sciences and Humanities",
            "NAICSCode__c": 541720,
            "Risk__c": "Low",
            "Score__c": 1
        },
        {
            "attributes": {
                "type": "Industry_Risk__c",
                "referenceId": "Industry_Risk__cRef383"
            },
            "Name": "Surveying and Mapping (except Geophysical) Services",
            "NAICSCode__c": 541370,
            "Risk__c": "Low",
            "Score__c": 1
        },
        {
            "attributes": {
                "type": "Industry_Risk__c",
                "referenceId": "Industry_Risk__cRef384"
            },
            "Name": "Tax Preparation Services",
            "NAICSCode__c": 541213,
            "Risk__c": "High",
            "Score__c": 5
        },
        {
            "attributes": {
                "type": "Industry_Risk__c",
                "referenceId": "Industry_Risk__cRef385"
            },
            "Name": "Testing Laboratories",
            "NAICSCode__c": 541380,
            "Risk__c": "Low",
            "Score__c": 1
        },
        {
            "attributes": {
                "type": "Industry_Risk__c",
                "referenceId": "Industry_Risk__cRef386"
            },
            "Name": "Title Abstract and Settlement Offices",
            "NAICSCode__c": 541191,
            "Risk__c": "High",
            "Score__c": 5
        },
        {
            "attributes": {
                "type": "Industry_Risk__c",
                "referenceId": "Industry_Risk__cRef387"
            },
            "Name": "Translation and Interpretation Services",
            "NAICSCode__c": 541930,
            "Risk__c": "Medium",
            "Score__c": 3
        },
        {
            "attributes": {
                "type": "Industry_Risk__c",
                "referenceId": "Industry_Risk__cRef388"
            },
            "Name": "Veterinary Services",
            "NAICSCode__c": 541940,
            "Risk__c": "Low",
            "Score__c": 1
        },
        {
            "attributes": {
                "type": "Industry_Risk__c",
                "referenceId": "Industry_Risk__cRef389"
            },
            "Name": "Administration of Air and Water Resource and Solid Waste Management Programs",
            "NAICSCode__c": 924110,
            "Risk__c": "Medium",
            "Score__c": 3
        },
        {
            "attributes": {
                "type": "Industry_Risk__c",
                "referenceId": "Industry_Risk__cRef390"
            },
            "Name": "Administration of Conservation Programs",
            "NAICSCode__c": 924120,
            "Risk__c": "Medium",
            "Score__c": 3
        },
        {
            "attributes": {
                "type": "Industry_Risk__c",
                "referenceId": "Industry_Risk__cRef391"
            },
            "Name": "Administration of Education Programs",
            "NAICSCode__c": 923110,
            "Risk__c": "Medium",
            "Score__c": 3
        },
        {
            "attributes": {
                "type": "Industry_Risk__c",
                "referenceId": "Industry_Risk__cRef392"
            },
            "Name": "Administration of General Economic Programs",
            "NAICSCode__c": 926110,
            "Risk__c": "Medium",
            "Score__c": 3
        },
        {
            "attributes": {
                "type": "Industry_Risk__c",
                "referenceId": "Industry_Risk__cRef393"
            },
            "Name": "Administration of Housing Programs",
            "NAICSCode__c": 925110,
            "Risk__c": "Medium",
            "Score__c": 3
        },
        {
            "attributes": {
                "type": "Industry_Risk__c",
                "referenceId": "Industry_Risk__cRef394"
            },
            "Name": "Administration of Public Health Programs",
            "NAICSCode__c": 923120,
            "Risk__c": "Medium",
            "Score__c": 3
        },
        {
            "attributes": {
                "type": "Industry_Risk__c",
                "referenceId": "Industry_Risk__cRef395"
            },
            "Name": "Administration of Urban Planning and Community and Rural Development",
            "NAICSCode__c": 925120,
            "Risk__c": "Medium",
            "Score__c": 3
        },
        {
            "attributes": {
                "type": "Industry_Risk__c",
                "referenceId": "Industry_Risk__cRef396"
            },
            "Name": "Administration of Veterans' Affairs",
            "NAICSCode__c": 923140,
            "Risk__c": "Medium",
            "Score__c": 3
        },
        {
            "attributes": {
                "type": "Industry_Risk__c",
                "referenceId": "Industry_Risk__cRef397"
            },
            "Name": "American Indian and Alaska Native Tribal Governments",
            "NAICSCode__c": 921150,
            "Risk__c": "Medium",
            "Score__c": 3
        },
        {
            "attributes": {
                "type": "Industry_Risk__c",
                "referenceId": "Industry_Risk__cRef398"
            },
            "Name": "Correctional Institutions",
            "NAICSCode__c": 922140,
            "Risk__c": "Medium",
            "Score__c": 3
        },
        {
            "attributes": {
                "type": "Industry_Risk__c",
                "referenceId": "Industry_Risk__cRef399"
            },
            "Name": "Courts",
            "NAICSCode__c": 922110,
            "Risk__c": "Medium",
            "Score__c": 3
        },
        {
            "attributes": {
                "type": "Industry_Risk__c",
                "referenceId": "Industry_Risk__cRef400"
            },
            "Name": "Executive and Legislative Offices, Combined",
            "NAICSCode__c": 921140,
            "Risk__c": "Medium",
            "Score__c": 3
        }
    ]
}