{
    "records": [
        {
            "attributes": {
                "type": "Legal_Structure_Risk__c",
                "referenceId": "Legal_Structure_Risk__cRef1"
            },
            "Name": "Association",
            "Score__c": 5,
            "Risk__c": "High"
        },
        {
            "attributes": {
                "type": "Legal_Structure_Risk__c",
                "referenceId": "Legal_Structure_Risk__cRef2"
            },
            "Name": "Foundation",
            "Score__c": 5,
            "Risk__c": "High"
        },
        {
            "attributes": {
                "type": "Legal_Structure_Risk__c",
                "referenceId": "Legal_Structure_Risk__cRef3"
            },
            "Name": "Mission",
            "Score__c": 5,
            "Risk__c": "High"
        },
        {
            "attributes": {
                "type": "Legal_Structure_Risk__c",
                "referenceId": "Legal_Structure_Risk__cRef4"
            },
            "Name": "Cooperative",
            "Score__c": 5,
            "Risk__c": "High"
        },
        {
            "attributes": {
                "type": "Legal_Structure_Risk__c",
                "referenceId": "Legal_Structure_Risk__cRef5"
            },
            "Name": "Corporation",
            "Score__c": 1,
            "Risk__c": "Low"
        },
        {
            "attributes": {
                "type": "Legal_Structure_Risk__c",
                "referenceId": "Legal_Structure_Risk__cRef6"
            },
            "Name": "Government (Agency)",
            "Score__c": 1,
            "Risk__c": "Low"
        },
        {
            "attributes": {
                "type": "Legal_Structure_Risk__c",
                "referenceId": "Legal_Structure_Risk__cRef7"
            },
            "Name": "Government (Consulate)",
            "Score__c": 1,
            "Risk__c": "Low"
        },
        {
            "attributes": {
                "type": "Legal_Structure_Risk__c",
                "referenceId": "Legal_Structure_Risk__cRef8"
            },
            "Name": "Government (Municipality)",
            "Score__c": 1,
            "Risk__c": "Low"
        },
        {
            "attributes": {
                "type": "Legal_Structure_Risk__c",
                "referenceId": "Legal_Structure_Risk__cRef9"
            },
            "Name": "Government (Multinational/Regional Development Bank, Supranational Organization)",
            "Score__c": 1,
            "Risk__c": "Low"
        },
        {
            "attributes": {
                "type": "Legal_Structure_Risk__c",
                "referenceId": "Legal_Structure_Risk__cRef10"
            },
            "Name": "Government (State-Owned Body)",
            "Score__c": 1,
            "Risk__c": "Low"
        },
        {
            "attributes": {
                "type": "Legal_Structure_Risk__c",
                "referenceId": "Legal_Structure_Risk__cRef11"
            },
            "Name": "Partnership",
            "Score__c": 3,
            "Risk__c": "Medium"
        },
        {
            "attributes": {
                "type": "Legal_Structure_Risk__c",
                "referenceId": "Legal_Structure_Risk__cRef12"
            },
            "Name": "Trust",
            "Score__c": 5,
            "Risk__c": "High"
        },
        {
            "attributes": {
                "type": "Legal_Structure_Risk__c",
                "referenceId": "Legal_Structure_Risk__cRef13"
            },
            "Name": "Estate",
            "Score__c": 3,
            "Risk__c": "Medium"
        },
        {
            "attributes": {
                "type": "Legal_Structure_Risk__c",
                "referenceId": "Legal_Structure_Risk__cRef14"
            },
            "Name": "LLC",
            "Score__c": 1,
            "Risk__c": "Low"
        },
        {
            "attributes": {
                "type": "Legal_Structure_Risk__c",
                "referenceId": "Legal_Structure_Risk__cRef15"
            },
            "Name": "Sole Proprietorship",
            "Score__c": 5,
            "Risk__c": "High"
        },
        {
            "attributes": {
                "type": "Legal_Structure_Risk__c",
                "referenceId": "Legal_Structure_Risk__cRef16"
            },
            "Name": "Pension Plan",
            "Score__c": 1,
            "Risk__c": "Low"
        },
        {
            "attributes": {
                "type": "Legal_Structure_Risk__c",
                "referenceId": "Legal_Structure_Risk__cRef17"
            },
            "Name": "Private Investment Company (PIC)",
            "Score__c": 5,
            "Risk__c": "High"
        },
        {
            "attributes": {
                "type": "Legal_Structure_Risk__c",
                "referenceId": "Legal_Structure_Risk__cRef18"
            },
            "Name": "SPV, SPE, Special Investment Vehicle",
            "Score__c": 5,
            "Risk__c": "High"
        },
        {
            "attributes": {
                "type": "Legal_Structure_Risk__c",
                "referenceId": "Legal_Structure_Risk__cRef19"
            },
            "Name": "Segregated Portfolio Company",
            "Score__c": 5,
            "Risk__c": "High"
        }
    ]
}