[
    {
        "sobject": "Product_Risk__c",
        "saveRefs": true,
        "resolveRefs": false,
        "files": [
            "Product_Risk__cs_1.json",
            "Product_Risk__cs_2.json",
            "Product_Risk__cs_3.json",
            "Product_Risk__cs_4.json"
        ]
    }
]