{
    "records": [
        {
            "attributes": {
                "type": "Risk_Factor__c",
                "referenceId": "Risk_Factor__cRef1"
            },
            "Name": "Corporation Age",
            "Calculation_Details__c": "There are different ranges for defining the length of relationship. The system considers the Params Corporation Age  risk params lookup table based on the calculated value and picks the score associated to this value.",
            "Details__c": "Risk associated with the age of the corporation In the industry. The system calculates the length of relationship by comparing the Date of Incorporate from Customer table with the risk processing date. Note: The length of relationship drives different weights for parameters based on new vs. existing.",
            "Weight__c": 2.5,
            "Activated__c": true,
            "RealTimeEnabled__c": true,
            "Individual__c": false,
            "LegalEntity__c": true,
            "OtherFinancialInstitution__c": true,
            "RuleBasedEnabled__c": true,
            "CustomerType__c":"Individual"
        },
        {
            "attributes": {
                "type": "Risk_Factor__c",
                "referenceId": "Risk_Factor__cRef2"
            },
            "Name": "Country Of Operation",
            "Calculation_Details__c": "If a customer's Country of Operation is Europe, the system considers the geo risk params table and picks the score associated to this value",
            "Details__c": "Risk associated with the country where the customer's business is being operated. The system considers Country of Operations from the Countries table.",
            "Weight__c": 2.5,
            "Activated__c": true,
            "RealTimeEnabled__c": true,
            "Individual__c": false,
            "LegalEntity__c": true,
            "OtherFinancialInstitution__c": true,
            "RuleBasedEnabled__c": true,
            "CustomerType__c":"Individual"
        },
        {
            "attributes": {
                "type": "Risk_Factor__c",
                "referenceId": "Risk_Factor__cRef3"
            },
            "Name": "Country Of Citizenship",
            "Calculation_Details__c": "If a customer's primary citizenship country is Romania and the secondary is US, the system considers the geo risk params table and picks the max score associated to this value.",
            "Details__c": "Risk associated with the country of citizenship of a customer. The system considers the country of citizenship from the Customer table for both primary and secondary, and the final score is the maximum score of these values.",
            "Weight__c": 2.5,
            "Activated__c": true,
            "RealTimeEnabled__c": true,
            "Individual__c": true,
            "LegalEntity__c": false,
            "OtherFinancialInstitution__c": false,
            "RuleBasedEnabled__c": true,
            "CustomerType__c":"Individual"
        },
        {
            "attributes": {
                "type": "Risk_Factor__c",
                "referenceId": "Risk_Factor__cRef4"
            },
            "Name": "Country Of Headquarters",
            "Calculation_Details__c": "If a customer 's Country of Headquarters is Albania, the system considers the geo risk params table and picks the score associated to this value",
            "Details__c": "Risk associated with a country where the headquarters of the customer is located. The system considers Country of Headquarters from the Customer's Address table where the address purpose is defined as Business.",
            "Weight__c": 5,
            "Activated__c": true,
            "RealTimeEnabled__c": true,
            "Individual__c": false,
            "LegalEntity__c": true,
            "OtherFinancialInstitution__c": true,
            "RuleBasedEnabled__c": true,
            "CustomerType__c":"Individual"
        },
        {
            "attributes": {
                "type": "Risk_Factor__c",
                "referenceId": "Risk_Factor__cRef5"
            },
            "Name": "Country Of Residence",
            "Calculation_Details__c": "If a customer's country of residence is Australia, the system considers the geo risk params table and picks the score associated to this value.",
            "Details__c": "Risk associated with the country of residence of a customer. The system looks for the country of residence from the Customer table.",
            "Weight__c": 5,
            "Activated__c": true,
            "RealTimeEnabled__c": true,
            "Individual__c": true,
            "LegalEntity__c": false,
            "OtherFinancialInstitution__c": false,
            "RuleBasedEnabled__c": true,
            "CustomerType__c":"Individual"
        },
        {
            "attributes": {
                "type": "Risk_Factor__c",
                "referenceId": "Risk_Factor__cRef6"
            },
            "Name": "Country Of Taxation",
            "Calculation_Details__c": "If a customer's country of taxation is UK, the system considers the geo risk params table and picks the score associated to this value.",
            "Details__c": "Risk associated with a country where the customer pays tax. The system considers the country of taxation from the Customer table.",
            "Weight__c": 5,
            "Activated__c": true,
            "RealTimeEnabled__c": true,
            "Individual__c": true,
            "LegalEntity__c": false,
            "OtherFinancialInstitution__c": false,
            "RuleBasedEnabled__c": false,
            "CustomerType__c":"Individual"
        },
        {
            "attributes": {
                "type": "Risk_Factor__c",
                "referenceId": "Risk_Factor__cRef7"
            },
            "Name": "Industry",
            "Calculation_Details__c": "If a customer's Industry is banking, the system considers the Params Industry risk params Lookup table and picks the score associated to this value.",
            "Details__c": "Risk associated with the Industry where the customer is employed. The system considers Industry from the Customer's table.",
            "Weight__c": 5,
            "Activated__c": true,
            "RealTimeEnabled__c": true,
            "Individual__c": false,
            "LegalEntity__c": true,
            "OtherFinancialInstitution__c": false,
            "RuleBasedEnabled__c": true,
            "CustomerType__c":"Individual"
        },
        {
            "attributes": {
                "type": "Risk_Factor__c",
                "referenceId": "Risk_Factor__cRef8"
            },
            "Name": "Watch List Primary Customer",
            "Calculation_Details__c": "Auto High Risk",
            "Details__c": "Risk associated with the customers being listed In the watch list maintained by the bank. The score assigned would be based on the list where the customer is matched.",
            "Weight__c": 5,
            "Activated__c": true,
            "RealTimeEnabled__c": true,
            "Individual__c": true,
            "LegalEntity__c": true,
            "OtherFinancialInstitution__c": true,
            "RuleBasedEnabled__c": true,
            "CustomerType__c":"Individual"
        },
        {
            "attributes": {
                "type": "Risk_Factor__c",
                "referenceId": "Risk_Factor__cRef9"
            },
            "Name": "Watch List Related Parties",
            "Calculation_Details__c": "Auto High Risk",
            "Details__c": "Risk associated with the Related Parties of a primary customer available In the list maintained by the bank for watch list. If there are multiple Related Parties the max score would be considered as the score.",
            "Weight__c": 5,
            "Activated__c": true,
            "RealTimeEnabled__c": true,
            "Individual__c": true,
            "LegalEntity__c": true,
            "OtherFinancialInstitution__c": true,
            "RuleBasedEnabled__c": true,
            "CustomerType__c":"Individual"
        },
        {
            "attributes": {
                "type": "Risk_Factor__c",
                "referenceId": "Risk_Factor__cRef10"
            },
            "Name": "Occupation",
            "Calculation_Details__c": "If a customer's occupation is Financial Services, the system considers the Params Occupation Lookup table and picks the score associated to this value",
            "Details__c": "Risk associated with the occupation a customer performs. The system looks for the Occupation from the Customer table.",
            "Weight__c": 5,
            "Activated__c": true,
            "RealTimeEnabled__c": false,
            "Individual__c": true,
            "LegalEntity__c": false,
            "OtherFinancialInstitution__c": false,
            "RuleBasedEnabled__c": true,
            "CustomerType__c":"Individual"
        },
        {
            "attributes": {
                "type": "Risk_Factor__c",
                "referenceId": "Risk_Factor__cRef11"
            },
            "Name": "IDV Primary Customer",
            "Calculation_Details__c": "Max of Related Parties.\n\nCalculation of Score\nIf the document verification is successful, then KYC provides 0 as the score for the Customer Identification Programme.\n\nIf the customer has not provided identity verification documents or does not meet the criteria, then the system will request third-party identity verification, if the client is utilizing this feature. Identity verification (IDV) is done through a third party who returns a score for the customer.\n\nIf the client has not provided any documents and a third-party IDV score is not provided, the system assigns a configurable default score for this parameter, which is defined In the IDV Default Score Parameter. For more information, refer to Configuration Guide and Enterprise Case Management User Guide. For the Deployment Initiation workflow, KYC provides the default score for all customers which is picked up from the IDV Default Score Parameter In the Params-specific Application Parameters table. \n\nFor more information about providing a value for this parameter refer to the Configuration Guide. Account On-boarding and Periodic Review workflows use the process described above for identity verification.",
            "Details__c": "If the primary customer has multiple Related Parties the maximum score is considered.\n\nThe customer's identity verification is carried out by the KYC system, using the documents submitted by the customer. The system identifies the documents based on the levels defined by the bank or financial institution.\n\nThe bank or FI uses the Document Guidelines Information table to define which documents are considered Level I, II, and III for each Params and each customer type. They can provide any number of documents for each of these levels. For successful document verification, the bank or FI must provide the required number of Level I, II, and III documents as defined In the Document Verification parameter In the Params-specific Application Parameters table. Based on the number provided for this parameter, KYC performs the document verification.",
            "Weight__c": 10,
            "Activated__c": true,
            "RealTimeEnabled__c": true,
            "Individual__c": true,
            "LegalEntity__c": true,
            "OtherFinancialInstitution__c": true,
            "RuleBasedEnabled__c": false,
            "Guidance__c": "In order to form a reasonable belief that the bank knows the true identity customer the bank must take steps to verify the customer’s identity. The bank’s procedures must describe when it uses documentary confirmation, non-documentary confirmation or a combination Of both.   When the bank uses documentary confirmation Of the identity Of the customer the bank must have procedures that prescribe the minimum standard for the identity documentation. The general standard for identify documentation required is a government issued form Of identification that has not expired. The form Of identification must provide the bank with the following below: \n•       Photo Of identity holder\n•       Name Of identity holder\n•       Nationality and address \n•       Identification Number\n\nWhere the customer is an entity such as a corporation, partnership, trust, estate or other entity, the bank must obtain legal documents the prove the existence Of the entity. Such documents may include a certificate Of incorporation, certified articles Of incorporation, a government issued license, a partnership agreement, or a trust agreement.\n\nThe KYC Policy must include procedures for conducting additional verification Of certain customers. For example, where the bank cannot verify information about the individuals who are the beneficial owners Of the entity, the bank must obtain information about and verify the beneficial owners.\n\nSource:\nKnow Your Customer (KYC) Policy: The Bank's Account Opening Procedures, Identity Verification Procedures and Customer Risk Assessment Procedures. Patrick Kabamba. location 26",
            "PWCGuidance__c": "What are the high level requirements for verification Of customer identification information (individuals and legal entities)?\nSection 326 Of the USA Patriot Act requires any financial institution engaged In financial activities to establish a written, board approved Customer Identification Program (CIP) to collect and verify identifying information about each prospective customer to a reasonable and practicable extent. The information must be sufficient to enable the institution to form a reasonable belief that it knows the true identity Of each customer. At a minimum, the following must be obtained and verified:\nIndividuals:\na) name;\nb) date Of birth;\nc) residential or business address (an army or fleet post office box number, rural route address or residential address Of next Of kin may be substituted); and\nd) government issued identification number (can determined by the institution, but should typically be a Taxpayer Identification Number (TIN) for individuals and entities (e.g. social security number or employer identification number).\nFor non-US individuals, other government issued photo identification documents such as passports or national identity cards are typically used.\nLegal entities (non-individuals):\na) name;\nb) address Of principal place Of business, office location, or other physical location Of operations/presence; and\nc) identification number.\nThere are two noteworthy exceptions to the CIP rule as related to the\n \n 1800 Tysons Boulevard\n McLean,\n VA 22102-4261,\n USA\nGFC/KYC AML/Customer Due Diligence/2019-09-29\nPage 1\n  Customer Due Diligence\n United States Of America\nContact\nSean Joyce\n+1 (703) 918 3528 sean.joyce@us.pwc.com\ninformation above:\na) an institution's CIP policy may account for customers who have applied, but not yet received, a TIN. In these cases, policy may call for the confirmation Of the TIN application being submitted before account opening and requiring the TIN information be obtained and updated within a reasonable period Of time after the account is established; and\nb) allows credit card issuers to obtain the identifying information from third-party sources prior to extending credit to a customer (31 C.F.R. §103-121(b)(2)(i)(a)).\nFor further information, please refer to the 'FAQs: Final CIP Rule' document which can be found at: link.\n17) Where copies Of identification documentation are provided, what are the requirements around independent verification or authentication?\nWhile US regulations are generally not prescriptive about specific specifications or authentication requirements, the rules around the Customer Identification Program (CIP) establish the following minimum requirements:\nVerification through documents:\nAn institution must ensure its CIP includes procedures that set forth the documents that can be used as part Of the verification process. These documents may include:\na) for an individual(s): an unexpired government issued identification evidencing nationality or residence and bearing a photograph or similar safeguard, such as a drivers license or passport; and\nb) for non-individuals (e.g., corporation, partnership, or trust): documents showing the existence Of the entity which can include certified articles Of incorporation, a government issued business license, a partnership agreement or trust instrument.\nVerification through non-documentary methods:\nAn institution must ensure its CIP includes procedures that describe the non-documentary methods that can be used as part Of the verification process. It should also cover circumstances In which the institution is unable to verify the true identity Of a customer through the documents presented/available (31 C.F.R. §103 121).\n18) What are the high level requirements around beneficial ownership (identification and verification)?\nOn May 11, 2016, financial institutions In the US became subject to explicit regulatory requirements to obtain and retain information on the beneficial owner(s) Of a customer entity subject to certain exclusions and exceptions. The rule requires financial institutions to implement risk based procedures to identify the beneficial owner(s) Of each customer at the time\n       1800 Tysons Boulevard\n McLean,\n VA 22102-4261,\n USA\nGFC/KYC AML/Customer Due Diligence/2019-09-29\nPage 2\n\n  Customer Due Diligence\n United States Of America\nContact\nSean Joyce\n+1 (703) 918 3528 sean.joyce@us.pwc.com\na new account is opened, unless the customer is otherwise excluded or the account is exempted. The procedures must contain the elements required for verifying the identity Of customers that are individuals under applicable Customer Identification Program (CIP) requirements.\nPrior to this final rule, US financial institutions were only required to identify the beneficial owner(s) Of certain correspondent accounts subject to Section 312 Of the USA PATRIOT ACT under the enhanced due diligence provisions Of that section. As with CIP for individual customers, covered financial institutions must collect from the legal entity customer the name, date Of birth, address and social security number or other government identification number (e.g. passport number or other similar information In the case Of non-US persons) for individuals who own 25% or more Of the equity interest Of the legal entity (if any), and any individual with significant responsibility to control/manage the legal entity at the time a new account is opened.\nNote: the final rule amends the Bank Secrecy Act (BSA) to clarify and strengthen customer due diligence requirements for banks, brokers or dealers In securities, mutual funds and futures commission merchants and introducing brokers In commodities. Please refer to FinCEN guidance document entitled 'Frequently Asked Questions Regarding Customer Due Diligence Requirements for Financial Institutions' (issue 19 Jul 2016) which can be found at: link.",
            "CustomerType__c":"Individual"
        },
        {
            "attributes": {
                "type": "Risk_Factor__c",
                "referenceId": "Risk_Factor__cRef12"
            },
            "Name": "IDV Related Parties",
            "Calculation_Details__c": "The third-party verification for identity can be enabled or disabled for a bank or FI through the Identity Verification parameter In the Application Parameters table.",
            "Details__c": "After the identification of customers, KYC proceeds with identification of Related Parties with Customer to Account and Customer to Customer Relationship. KYC classifies the following types of Related Parties:\n * Customer to Customer Relationship: Customer who has relationship with the primary customer via friends, colleagues, relatives, and so on. This relationship is not required to have a controlling role on the account held by the primary customer.\n * Customer to Account Relationship: Customer who has a controlling role of the account held by the primary customer.",
            "Weight__c": 5,
            "Activated__c": true,
            "RealTimeEnabled__c": true,
            "Individual__c": false,
            "LegalEntity__c": true,
            "OtherFinancialInstitution__c": true,
            "RuleBasedEnabled__c": false,
            "CustomerType__c":"Individual"
        },
        {
            "attributes": {
                "type": "Risk_Factor__c",
                "referenceId": "Risk_Factor__cRef13"
            },
            "Name": "Length Of Relationship",
            "Calculation_Details__c": "There are different ranges for defining the length of relationship. The minimum and maximum range are configurable. For example:\n* Less than 12 months\n* 13 to 36 months\n*  More than 37 months\nThe system considers the Params Relationship length  risk lookup table based on the calculated value and picks the score associated to this value.",
            "Details__c": "Risk associated with the length of relationship a customer has with the bank or FI. The system calculates the length of relationship by comparing the customer’s Add Date from the Customer table with the risk Processing Date. Note: The length of relationship drives different weights for parameters based on new vs. existing.",
            "Weight__c": 5,
            "Activated__c": true,
            "RealTimeEnabled__c": false,
            "Individual__c": true,
            "LegalEntity__c": true,
            "OtherFinancialInstitution__c": true,
            "RuleBasedEnabled__c": false,
            "CustomerType__c":"Individual"
        },
        {
            "attributes": {
                "type": "Risk_Factor__c",
                "referenceId": "Risk_Factor__cRef14"
            },
            "Name": "Negative News Primary Customer",
            "Calculation_Details__c": "If customer is on a trust or exempt list (that is, list with a risk <0),\nWatch List Risk --> 0 If not, (highest risk of the matched list x 10) as calculated from the negative news params table",
            "Details__c": "Risk associated with a customer who is available In the negative news search.",
            "Weight__c": 2.5,
            "Activated__c": true,
            "RealTimeEnabled__c": true,
            "Individual__c": true,
            "LegalEntity__c": true,
            "OtherFinancialInstitution__c": true,
            "RuleBasedEnabled__c": false,
            "CustomerType__c":"Individual"
        },
        {
            "attributes": {
                "type": "Risk_Factor__c",
                "referenceId": "Risk_Factor__cRef15"
            },
            "Name": "Negative News Related Parties",
            "Calculation_Details__c": "If customer is on a trust or exempt list (that is, list with a risk <0),\nWatch List Risk --> 0 If not, (highest risk of the matched list x 10) as calculated from the negative news params table",
            "Details__c": "Risk associated with an interested party who is available In the negative news search.",
            "Weight__c": 2.5,
            "Activated__c": true,
            "RealTimeEnabled__c": true,
            "Individual__c": true,
            "LegalEntity__c": true,
            "OtherFinancialInstitution__c": true,
            "RuleBasedEnabled__c": false,
            "CustomerType__c":"Individual"
        },
        {
            "attributes": {
                "type": "Risk_Factor__c",
                "referenceId": "Risk_Factor__cRef16"
            },
            "Name": "Source Of Wealth",
            "Calculation_Details__c": "If a customer's source of wealth is Gambling, the system considers the Params Source of Wealth Lookup table and picks the score associated to this value.",
            "Details__c": "Risk associated with the source of wealth defined by the customer In relation to the account being opened. The system considers the wealth source from the Customer table.",
            "Weight__c": 5,
            "Activated__c": true,
            "RealTimeEnabled__c": true,
            "Individual__c": true,
            "LegalEntity__c": false,
            "OtherFinancialInstitution__c": false,
            "RuleBasedEnabled__c": false,
            "CustomerType__c":"Individual"
        },
        {
            "attributes": {
                "type": "Risk_Factor__c",
                "referenceId": "Risk_Factor__cRef17"
            },
            "Name": "Public Company",
            "Calculation_Details__c": "If a customer is privately held then the system consider the Params Company Type Risk table and picks the score associated to this value.",
            "Details__c": "Risk associated with type of the company, public or private. The system considers whether the customer is publicly or privately held from the Customer table.",
            "Weight__c": 2.5,
            "Activated__c": true,
            "RealTimeEnabled__c": true,
            "Individual__c": false,
            "LegalEntity__c": false,
            "OtherFinancialInstitution__c": true,
            "RuleBasedEnabled__c": false,
            "CustomerType__c":"Individual"
        },
        {
            "attributes": {
                "type": "Risk_Factor__c",
                "referenceId": "Risk_Factor__cRef18"
            },
            "Name": "Account Types",
            "Calculation_Details__c": "If a Customer A opens an account A 1, he also has three other accounts, A2, A3, A4. During processing KYC checks for all the four accounts values for the Method of Account Opening and assigns the maximum score derived from the map tables for each of the value for these accounts",
            "Details__c": "Risk Associated with the account type which is associated with the account being opened. Based on the different products/services associated to an account, account type can be defined. For example, Account Type – Savings1, Products/Services – a, b, c Account Type – Savings2, Products/Services – a, d, x",
            "Weight__c": 5,
            "Activated__c": true,
            "RealTimeEnabled__c": true,
            "Individual__c": true,
            "LegalEntity__c": true,
            "OtherFinancialInstitution__c": true,
            "RuleBasedEnabled__c": false,
            "CustomerType__c":"Individual"
        },
        {
            "attributes": {
                "type": "Risk_Factor__c",
                "referenceId": "Risk_Factor__cRef19"
            },
            "Name": "Account Open Method",
            "Calculation_Details__c": "If a Customer A opens an account A 1, he also has 3 other accounts, A2, A3, A4. During processing KYC checks for all the 4 accounts values for the Account Type parameters and assigns the maximum score derived from the map tables for each of the value for these accounts",
            "Details__c": "Risk associated with different method of account opening. For example Online/Walk in/Phone etc.",
            "Weight__c": 5,
            "Activated__c": true,
            "RealTimeEnabled__c": true,
            "Individual__c": true,
            "LegalEntity__c": true,
            "OtherFinancialInstitution__c": true,
            "RuleBasedEnabled__c": false,
            "CustomerType__c":"Individual"
        },
        {
            "attributes": {
                "type": "Risk_Factor__c",
                "referenceId": "Risk_Factor__cRef20"
            },
            "Name": "Markets Served",
            "Calculation_Details__c": "If a customer has investment banking and retail banking as Markets Served, the system considers the Params Market Served table and picks the maximum score associated to this value.",
            "Details__c": "Risk associated with difference markets served as stated by the customer for its operations. The system considers the Markets Served from the Customer to Market Served table.",
            "Weight__c": 5,
            "Activated__c": true,
            "RealTimeEnabled__c": true,
            "Individual__c": false,
            "LegalEntity__c": false,
            "OtherFinancialInstitution__c": true,
            "RuleBasedEnabled__c": false,
            "CustomerType__c":"Individual"
        },
        {
            "attributes": {
                "type": "Risk_Factor__c",
                "referenceId": "Risk_Factor__cRef21"
            },
            "Name": "Products Offered",
            "Calculation_Details__c": "If a customer has loans and credit cards as Products Offered, the system considers the Params Products Offered Served table and picks the maximum score associated to this value.",
            "Details__c": "Risk associated to the different products served as stated by the customer. The system considers the Products Offered from the Customer to Products Offered table. It would even consider the effective and expiry date and compare with the risk processing date. If the expiry date is not provided the system considers for risk assessment.",
            "Weight__c": 5,
            "Activated__c": true,
            "RealTimeEnabled__c": true,
            "Individual__c": false,
            "LegalEntity__c": false,
            "OtherFinancialInstitution__c": true,
            "RuleBasedEnabled__c": false,
            "CustomerType__c":"Individual"
        }
    ]
}